"#","Date Submitted","Вашето име","Имейл","Вашето съобщение"
"15","04/03/2020","Симона","simona_boneva92@abv.bg","Здравейте,

искам да поръчам чанта за йоркширски терирер, но не знам дали тази няма да е много малка - https://koketka.bg/?product=%d0%bb%d1%83%d0%ba%d1%81%d0%be%d0%b7%d0%bd%d0%b0-%d1%87%d0%b0%d0%bd%d1%82%d0%b0"
