=== START test_database 2017-09-11 14:17:47 ===
Connected with success to the PrestaShop database
PrestaShop data found:
548 products
32 product categories
5 CMS articles
1 CMS category
2 employees
435 customers
450 orders

[WARNING] Your Prestashop database contains several customers. You need the <a href="https://www.fredericgilles.net/fg-prestashop-to-woocommerce/" target="_blank">Premium version</a> to import them.
[WARNING] Your Prestashop database contains some attributes. You need the <a href="https://www.fredericgilles.net/fg-prestashop-to-woocommerce/" target="_blank">Premium version</a> to import them.
[WARNING] Your Prestashop database contains some orders. You need the <a href="https://www.fredericgilles.net/fg-prestashop-to-woocommerce/" target="_blank">Premium version</a> to import them.
[WARNING] Your Prestashop database contains several manufacturers. You need the <a href="https://www.fredericgilles.net/fg-prestashop-to-woocommerce/" target="_blank">Premium version</a> and the <a href="https://www.fredericgilles.net/fg-prestashop-to-woocommerce/brands/" target="_blank">Brands add-on</a> to import them.
[WARNING] Your Prestashop database contains several languages. You need the <a href="https://www.fredericgilles.net/fg-prestashop-to-woocommerce/" target="_blank">Premium version</a> and the <a href="https://www.fredericgilles.net/fg-prestashop-to-woocommerce/wpml/" target="_blank">WPML add-on</a> to import them.
=== END test_database 2017-09-11 14:17:47 ===

=== START import 2017-09-11 14:21:45 ===
Connected with success to the PrestaShop database
PrestaShop data found:
548 products
32 product categories
5 CMS articles
1 CMS category
2 employees
435 customers
450 orders

[WARNING] Your Prestashop database contains several customers. You need the <a href="https://www.fredericgilles.net/fg-prestashop-to-woocommerce/" target="_blank">Premium version</a> to import them.
[WARNING] Your Prestashop database contains some attributes. You need the <a href="https://www.fredericgilles.net/fg-prestashop-to-woocommerce/" target="_blank">Premium version</a> to import them.
[WARNING] Your Prestashop database contains some orders. You need the <a href="https://www.fredericgilles.net/fg-prestashop-to-woocommerce/" target="_blank">Premium version</a> to import them.
[WARNING] Your Prestashop database contains several manufacturers. You need the <a href="https://www.fredericgilles.net/fg-prestashop-to-woocommerce/" target="_blank">Premium version</a> and the <a href="https://www.fredericgilles.net/fg-prestashop-to-woocommerce/brands/" target="_blank">Brands add-on</a> to import them.
[WARNING] Your Prestashop database contains several languages. You need the <a href="https://www.fredericgilles.net/fg-prestashop-to-woocommerce/" target="_blank">Premium version</a> and the <a href="https://www.fredericgilles.net/fg-prestashop-to-woocommerce/wpml/" target="_blank">WPML add-on</a> to import them.
Importing CMS categories...
1 category imported
Importing CMS articles...
5 articles imported
0 tags imported
Importing product categories...
32 product categories imported
Importing products...
=== START stop_import 2017-09-11 14:37:41 ===
=== END stop_import 2017-09-11 14:37:41 ===

=== START stop_import 2017-09-11 14:44:38 ===
=== END stop_import 2017-09-11 14:44:38 ===

=== START import 2017-09-11 14:49:04 ===
Connected with success to the PrestaShop database
PrestaShop data found:
548 products
32 product categories
5 CMS articles
1 CMS category
2 employees
435 customers
450 orders

[WARNING] Your Prestashop database contains several customers. You need the <a href="https://www.fredericgilles.net/fg-prestashop-to-woocommerce/" target="_blank">Premium version</a> to import them.
[WARNING] Your Prestashop database contains some attributes. You need the <a href="https://www.fredericgilles.net/fg-prestashop-to-woocommerce/" target="_blank">Premium version</a> to import them.
[WARNING] Your Prestashop database contains some orders. You need the <a href="https://www.fredericgilles.net/fg-prestashop-to-woocommerce/" target="_blank">Premium version</a> to import them.
[WARNING] Your Prestashop database contains several manufacturers. You need the <a href="https://www.fredericgilles.net/fg-prestashop-to-woocommerce/" target="_blank">Premium version</a> and the <a href="https://www.fredericgilles.net/fg-prestashop-to-woocommerce/brands/" target="_blank">Brands add-on</a> to import them.
[WARNING] Your Prestashop database contains several languages. You need the <a href="https://www.fredericgilles.net/fg-prestashop-to-woocommerce/" target="_blank">Premium version</a> and the <a href="https://www.fredericgilles.net/fg-prestashop-to-woocommerce/wpml/" target="_blank">WPML add-on</a> to import them.
Importing CMS categories...
0 categories imported
Importing CMS articles...
0 articles imported
0 tags imported
Importing product categories...
0 product categories imported
Importing products...
=== START stop_import 2017-09-11 14:54:37 ===
=== END stop_import 2017-09-11 14:54:37 ===

=== START import 2017-09-11 14:54:49 ===
Connected with success to the PrestaShop database
PrestaShop data found:
548 products
32 product categories
5 CMS articles
1 CMS category
2 employees
435 customers
450 orders

[WARNING] Your Prestashop database contains several customers. You need the <a href="https://www.fredericgilles.net/fg-prestashop-to-woocommerce/" target="_blank">Premium version</a> to import them.
[WARNING] Your Prestashop database contains some attributes. You need the <a href="https://www.fredericgilles.net/fg-prestashop-to-woocommerce/" target="_blank">Premium version</a> to import them.
[WARNING] Your Prestashop database contains some orders. You need the <a href="https://www.fredericgilles.net/fg-prestashop-to-woocommerce/" target="_blank">Premium version</a> to import them.
[WARNING] Your Prestashop database contains several manufacturers. You need the <a href="https://www.fredericgilles.net/fg-prestashop-to-woocommerce/" target="_blank">Premium version</a> and the <a href="https://www.fredericgilles.net/fg-prestashop-to-woocommerce/brands/" target="_blank">Brands add-on</a> to import them.
[WARNING] Your Prestashop database contains several languages. You need the <a href="https://www.fredericgilles.net/fg-prestashop-to-woocommerce/" target="_blank">Premium version</a> and the <a href="https://www.fredericgilles.net/fg-prestashop-to-woocommerce/wpml/" target="_blank">WPML add-on</a> to import them.
Importing CMS categories...
0 categories imported
Importing CMS articles...
0 articles imported
0 tags imported
Importing product categories...
0 product categories imported
Importing products...
=== START stop_import 2017-09-11 15:01:57 ===
=== END stop_import 2017-09-11 15:01:57 ===

=== START import 2017-09-11 15:02:04 ===
Connected with success to the PrestaShop database
PrestaShop data found:
548 products
32 product categories
5 CMS articles
1 CMS category
2 employees
435 customers
450 orders

[WARNING] Your Prestashop database contains several customers. You need the <a href="https://www.fredericgilles.net/fg-prestashop-to-woocommerce/" target="_blank">Premium version</a> to import them.
[WARNING] Your Prestashop database contains some attributes. You need the <a href="https://www.fredericgilles.net/fg-prestashop-to-woocommerce/" target="_blank">Premium version</a> to import them.
[WARNING] Your Prestashop database contains some orders. You need the <a href="https://www.fredericgilles.net/fg-prestashop-to-woocommerce/" target="_blank">Premium version</a> to import them.
[WARNING] Your Prestashop database contains several manufacturers. You need the <a href="https://www.fredericgilles.net/fg-prestashop-to-woocommerce/" target="_blank">Premium version</a> and the <a href="https://www.fredericgilles.net/fg-prestashop-to-woocommerce/brands/" target="_blank">Brands add-on</a> to import them.
[WARNING] Your Prestashop database contains several languages. You need the <a href="https://www.fredericgilles.net/fg-prestashop-to-woocommerce/" target="_blank">Premium version</a> and the <a href="https://www.fredericgilles.net/fg-prestashop-to-woocommerce/wpml/" target="_blank">WPML add-on</a> to import them.
Importing CMS categories...
0 categories imported
Importing CMS articles...
0 articles imported
0 tags imported
Importing product categories...
0 product categories imported
Importing products...
=== START stop_import 2017-09-11 15:02:51 ===
=== END stop_import 2017-09-11 15:02:51 ===

50 products imported
IMPORT STOPPED BY USER
=== END import 2017-09-11 15:02:53 ===

=== START import 2017-09-11 15:02:55 ===
Connected with success to the PrestaShop database
PrestaShop data found:
548 products
32 product categories
5 CMS articles
1 CMS category
2 employees
435 customers
450 orders

[WARNING] Your Prestashop database contains several customers. You need the <a href="https://www.fredericgilles.net/fg-prestashop-to-woocommerce/" target="_blank">Premium version</a> to import them.
[WARNING] Your Prestashop database contains some attributes. You need the <a href="https://www.fredericgilles.net/fg-prestashop-to-woocommerce/" target="_blank">Premium version</a> to import them.
[WARNING] Your Prestashop database contains some orders. You need the <a href="https://www.fredericgilles.net/fg-prestashop-to-woocommerce/" target="_blank">Premium version</a> to import them.
[WARNING] Your Prestashop database contains several manufacturers. You need the <a href="https://www.fredericgilles.net/fg-prestashop-to-woocommerce/" target="_blank">Premium version</a> and the <a href="https://www.fredericgilles.net/fg-prestashop-to-woocommerce/brands/" target="_blank">Brands add-on</a> to import them.
[WARNING] Your Prestashop database contains several languages. You need the <a href="https://www.fredericgilles.net/fg-prestashop-to-woocommerce/" target="_blank">Premium version</a> and the <a href="https://www.fredericgilles.net/fg-prestashop-to-woocommerce/wpml/" target="_blank">WPML add-on</a> to import them.
Importing CMS categories...
0 categories imported
Importing CMS articles...
0 articles imported
0 tags imported
Importing product categories...
0 product categories imported
Importing products...
45 products imported
IMPORT COMPLETED
=== END import 2017-09-11 15:04:54 ===

=== START import 2017-09-11 15:08:02 ===
Connected with success to the PrestaShop database
PrestaShop data found:
548 products
32 product categories
5 CMS articles
1 CMS category
2 employees
435 customers
450 orders

[WARNING] Your Prestashop database contains several customers. You need the <a href="https://www.fredericgilles.net/fg-prestashop-to-woocommerce/" target="_blank">Premium version</a> to import them.
[WARNING] Your Prestashop database contains some attributes. You need the <a href="https://www.fredericgilles.net/fg-prestashop-to-woocommerce/" target="_blank">Premium version</a> to import them.
[WARNING] Your Prestashop database contains some orders. You need the <a href="https://www.fredericgilles.net/fg-prestashop-to-woocommerce/" target="_blank">Premium version</a> to import them.
[WARNING] Your Prestashop database contains several manufacturers. You need the <a href="https://www.fredericgilles.net/fg-prestashop-to-woocommerce/" target="_blank">Premium version</a> and the <a href="https://www.fredericgilles.net/fg-prestashop-to-woocommerce/brands/" target="_blank">Brands add-on</a> to import them.
[WARNING] Your Prestashop database contains several languages. You need the <a href="https://www.fredericgilles.net/fg-prestashop-to-woocommerce/" target="_blank">Premium version</a> and the <a href="https://www.fredericgilles.net/fg-prestashop-to-woocommerce/wpml/" target="_blank">WPML add-on</a> to import them.
Importing CMS categories...
0 categories imported
Importing CMS articles...
0 articles imported
0 tags imported
Importing product categories...
0 product categories imported
Importing products...
0 products imported
IMPORT COMPLETED
=== END import 2017-09-11 15:08:02 ===

=== START import 2017-09-11 15:08:04 ===
Connected with success to the PrestaShop database
PrestaShop data found:
548 products
32 product categories
5 CMS articles
1 CMS category
2 employees
435 customers
450 orders

[WARNING] Your Prestashop database contains several customers. You need the <a href="https://www.fredericgilles.net/fg-prestashop-to-woocommerce/" target="_blank">Premium version</a> to import them.
[WARNING] Your Prestashop database contains some attributes. You need the <a href="https://www.fredericgilles.net/fg-prestashop-to-woocommerce/" target="_blank">Premium version</a> to import them.
[WARNING] Your Prestashop database contains some orders. You need the <a href="https://www.fredericgilles.net/fg-prestashop-to-woocommerce/" target="_blank">Premium version</a> to import them.
[WARNING] Your Prestashop database contains several manufacturers. You need the <a href="https://www.fredericgilles.net/fg-prestashop-to-woocommerce/" target="_blank">Premium version</a> and the <a href="https://www.fredericgilles.net/fg-prestashop-to-woocommerce/brands/" target="_blank">Brands add-on</a> to import them.
[WARNING] Your Prestashop database contains several languages. You need the <a href="https://www.fredericgilles.net/fg-prestashop-to-woocommerce/" target="_blank">Premium version</a> and the <a href="https://www.fredericgilles.net/fg-prestashop-to-woocommerce/wpml/" target="_blank">WPML add-on</a> to import them.
Importing CMS categories...
0 categories imported
Importing CMS articles...
0 articles imported
0 tags imported
Importing product categories...
0 product categories imported
Importing products...
0 products imported
IMPORT COMPLETED
=== END import 2017-09-11 15:08:04 ===

